{
    "devices": [
        {
            "identifier": "Modbus",
            "name": "Modbus Client 1",
            "modbus":
            {
                "device": "/dev/ttyUSB1",
                "type": "TCP",
                "ip": "10.1.1.4",
                "port": 502,
                "type2": "RTU",
                "baudrate": 19200,
                "bytesize": 8,
                "parity": "E",
                "stopbits": 1,
                "xonxoff": 0,
                "measurements": [
                  {
                    "slaveid": 170,
                    "functioncode": 3,
                    "address": 64,
                    "length": 1,
                    "reversebyteorder": 1,
                    "dataformat": ">H",
                    "convertformat": ">H",
                    "multiplier": 1,
                    "label": "SWDINPV.ZBAT1.BatChaSt",
                    "units": "U"
                   },
                   {
                    "slaveid": 170,
                    "functioncode": 3,
                    "address": 76,
                    "length": 2,
                    "dataformat": ">HH",
                    "convertformat": ">I",
                    "reversebyteorder": 1,
                    "multiplier": 0.001,
                    "label": "SWDINPV.MMXN1.Vol.instMag[MX]",
                    "units": "A"
                   },
                    {
                    "slaveid": 170,
                    "functioncode": 3,
                    "address": 78,
                    "length": 2,
                    "dataformat": ">HH",
                    "convertformat": ">I",
                    "reversebyteorder": 1,
                    "multiplier": 0.001,
                    "label": "SWDINPV.MMXN1.Cur.instMag[MX]",
                    "units": "A"
                   },
                   {
                    "slaveid": 170,
                    "functioncode": 3,
                    "address": 80,
                    "length": 2,
                    "dataformat": ">HH",
                    "convertformat": ">I",
                    "reversebyteorder": 1,
                    "multiplier": 1.0,
                    "label": "SWDINPV.MMXN1.TotW.instMag[MX]",
                    "units": "W"
                   },
                   {
                    "slaveid": 170,
                    "functioncode": 3,
                    "address": 86,
                    "length": 1,
                    "reversebyteorder": 0,
                    "dataformat": ">H",
                    "convertformat": ">H",
                    "multiplier": 0.01,
                    "offset": -273.0,
                    "label": "SWDINPV.ZBAT1.Tmp.instMag[MX]",
                    "units": "C"
                   },
                   {
                    "slaveid": 170,
                    "functioncode": 3,
                    "address": 88,
                    "length": 2,
                    "reversebyteorder": 1,
                    "dataformat": ">HH",
                    "convertformat": ">i",
                    "multiplier": 0.001,
                    "label": "SWDINPV.ZBAT1.Vol.instMag[MX]",
                    "units": "V"
                   },
                   {
                    "slaveid": 170,
                    "functioncode": 3,
                    "address": 90,
                    "length": 2,
                    "dataformat": ">HH",
                    "convertformat": ">i",
                    "reversebyteorder": 1,
                    "multiplier": 0.001,
                    "label": "SWDINPV.ZBAT1.Cur.instMag[MX]",
                    "units": "A"
                   },
                   {
                    "slaveid": 170,
                    "functioncode": 3,
                    "address": 92,
                    "length": 2,
                    "dataformat": ">HH",
                    "convertformat": ">I",
                    "reversebyteorder": 1,
                    "multiplier": 1.0,
                    "label": "SWDINPV.ZBAT1.TotW.instMag[MX]",
                    "units": "W"
                   },
                   {
                    "slaveid": 170,
                    "functioncode": 3,
                    "address": 162,
                    "length": 2,
                    "dataformat": ">HH",
                    "convertformat": ">I",
                    "reversebyteorder": 1,
                    "multiplier": 0.001,
                    "label": "SWDINPV.MPPT.VRef.instMag[MX]",
                    "units": "W"
                   },
                   {
                    "slaveid": 170,
                    "functioncode": 3,
                    "address": 168,
                    "length": 1,
                    "dataformat": ">H",
                    "convertformat": ">H",
                    "reversebyteorder": 1,
                    "multiplier": 1.0,
                    "label": "SWDINPV.ZBAT1.SoC.instMag[MX]",
                    "units": "Ah"
                    }
                ],
                "commands": [
                  {
                    "command": "SETSWOOP",
                    "label": "SWDINPV.SetPoint",
                    "slaveid": 10,
                    "functioncode": 16,
                    "address": 356,
                    "multiplier": 1,
                    "dataformat": ">H",
                    "convertformat": ">H",
                    "reversebyteorder": 1
                  }
                ]
            }
            
        }
    ]
}
